Project/tooling/transcript
# vsim -do ./config/run.tcl -lib work -c -wlf ./waveform.wlf work.stavka_d 
# Loading work.stavka_d
# do ./config/run.tcl 
# Time =   0, dut_data_in = 0000, dut_control = 000, dut_data_out = 0000
# Time =  17, dut_data_in = 0100, dut_control = 001, dut_data_out = 0000
# Time =  21, dut_data_in = 0100, dut_control = 001, dut_data_out = 0100
# Time =  29, dut_data_in = 1001, dut_control = 011, dut_data_out = 0100
# Time =  33, dut_data_in = 1001, dut_control = 011, dut_data_out = 0010
# Time =  41, dut_data_in = 1101, dut_control = 101, dut_data_out = 0010
# Time =  45, dut_data_in = 1101, dut_control = 101, dut_data_out = 0011
# Time =  51, dut_data_in = 1101, dut_control = 101, dut_data_out = 0100
# Time =  53, dut_data_in = 0101, dut_control = 010, dut_data_out = 0100
# Time =  65, dut_data_in = 0001, dut_control = 101, dut_data_out = 0100
# Time =  69, dut_data_in = 0001, dut_control = 101, dut_data_out = 0101
# Time =  75, dut_data_in = 0001, dut_control = 101, dut_data_out = 0110
# Time =  77, dut_data_in = 0110, dut_control = 101, dut_data_out = 0110
# Time =  81, dut_data_in = 0110, dut_control = 101, dut_data_out = 0111
# Time =  87, dut_data_in = 0110, dut_control = 101, dut_data_out = 1000
# Time =  89, dut_data_in = 1101, dut_control = 100, dut_data_out = 1000
# Time = 101, dut_data_in = 1001, dut_control = 110, dut_data_out = 1000
# Time = 113, dut_data_in = 0101, dut_control = 010, dut_data_out = 1000
# Time = 125, dut_data_in = 0101, dut_control = 111, dut_data_out = 1000
# Time = 129, dut_data_in = 0101, dut_control = 111, dut_data_out = 1001
# Time = 135, dut_data_in = 0101, dut_control = 111, dut_data_out = 1010
# Time = 137, dut_data_in = 0010, dut_control = 111, dut_data_out = 1010
# Time = 141, dut_data_in = 0010, dut_control = 111, dut_data_out = 1011
# Time = 147, dut_data_in = 0010, dut_control = 111, dut_data_out = 1100
# Time = 149, dut_data_in = 0010, dut_control = 110, dut_data_out = 1100
# Time = 161, dut_data_in = 1000, dut_control = 101, dut_data_out = 1100
# Time = 165, dut_data_in = 1000, dut_control = 101, dut_data_out = 1101
# Time = 171, dut_data_in = 1000, dut_control = 101, dut_data_out = 1110
# Time = 173, dut_data_in = 1100, dut_control = 101, dut_data_out = 1110
# Time = 177, dut_data_in = 1100, dut_control = 101, dut_data_out = 1111
# Time = 183, dut_data_in = 1100, dut_control = 101, dut_data_out = 0000
# Time = 185, dut_data_in = 1101, dut_control = 101, dut_data_out = 0000
# Time = 189, dut_data_in = 1101, dut_control = 101, dut_data_out = 0001
# Time = 195, dut_data_in = 1101, dut_control = 101, dut_data_out = 0010
# Time = 197, dut_data_in = 0011, dut_control = 010, dut_data_out = 0010
# Time = 209, dut_data_in = 0000, dut_control = 000, dut_data_out = 0010
# Time = 221, dut_data_in = 1010, dut_control = 101, dut_data_out = 0010
# Time = 225, dut_data_in = 1010, dut_control = 101, dut_data_out = 0011
# Time = 231, dut_data_in = 1010, dut_control = 101, dut_data_out = 0100
# Time = 233, dut_data_in = 0110, dut_control = 011, dut_data_out = 0100
# Time = 237, dut_data_in = 0110, dut_control = 011, dut_data_out = 1100
# Time = 245, dut_data_in = 1101, dut_control = 011, dut_data_out = 1100
# Time = 249, dut_data_in = 1101, dut_control = 011, dut_data_out = 1010
# Time = 257, dut_data_in = 1011, dut_control = 101, dut_data_out = 1010
# Time = 261, dut_data_in = 1011, dut_control = 101, dut_data_out = 1011
# Time = 267, dut_data_in = 1011, dut_control = 101, dut_data_out = 1100
# Time = 269, dut_data_in = 0010, dut_control = 110, dut_data_out = 1100
# Time = 281, dut_data_in = 1101, dut_control = 111, dut_data_out = 1100
# Time = 285, dut_data_in = 1101, dut_control = 111, dut_data_out = 1101
# Time = 291, dut_data_in = 1101, dut_control = 111, dut_data_out = 1110
# Time = 293, dut_data_in = 0011, dut_control = 010, dut_data_out = 1110
# Time = 305, dut_data_in = 1010, dut_control = 100, dut_data_out = 1110
# Time = 317, dut_data_in = 0010, dut_control = 010, dut_data_out = 1110
# Time = 329, dut_data_in = 0001, dut_control = 000, dut_data_out = 1110
# Time = 341, dut_data_in = 1000, dut_control = 001, dut_data_out = 1110
# Time = 345, dut_data_in = 1000, dut_control = 001, dut_data_out = 1000
# Time = 353, dut_data_in = 1011, dut_control = 110, dut_data_out = 1000
# Time = 365, dut_data_in = 0110, dut_control = 110, dut_data_out = 1000
# Time = 377, dut_data_in = 1100, dut_control = 010, dut_data_out = 1000
# Time = 389, dut_data_in = 1011, dut_control = 001, dut_data_out = 1000
# Time = 393, dut_data_in = 1011, dut_control = 001, dut_data_out = 1011
# Time = 401, dut_data_in = 0101, dut_control = 111, dut_data_out = 1011
# Time = 405, dut_data_in = 0101, dut_control = 111, dut_data_out = 1100
# Time = 411, dut_data_in = 0101, dut_control = 111, dut_data_out = 1101
# Time = 413, dut_data_in = 1011, dut_control = 010, dut_data_out = 1101
# Time = 425, dut_data_in = 1110, dut_control = 101, dut_data_out = 1101
# Time = 429, dut_data_in = 1110, dut_control = 101, dut_data_out = 1110
# Time = 435, dut_data_in = 1110, dut_control = 101, dut_data_out = 1111
# Time = 437, dut_data_in = 0001, dut_control = 001, dut_data_out = 1111
# Time = 441, dut_data_in = 0001, dut_control = 001, dut_data_out = 0001
# Time = 449, dut_data_in = 0010, dut_control = 100, dut_data_out = 0001
# Time = 461, dut_data_in = 1111, dut_control = 111, dut_data_out = 0001
# Time = 465, dut_data_in = 1111, dut_control = 111, dut_data_out = 0010
# Time = 471, dut_data_in = 1111, dut_control = 111, dut_data_out = 0011
# Time = 473, dut_data_in = 1000, dut_control = 111, dut_data_out = 0011
# Time = 477, dut_data_in = 1000, dut_control = 111, dut_data_out = 0100
# Time = 483, dut_data_in = 1000, dut_control = 111, dut_data_out = 0101
# Time = 485, dut_data_in = 1111, dut_control = 100, dut_data_out = 0101
# Time = 497, dut_data_in = 1011, dut_control = 001, dut_data_out = 0101
# Time = 501, dut_data_in = 1011, dut_control = 001, dut_data_out = 1011
# Time = 509, dut_data_in = 1001, dut_control = 000, dut_data_out = 1011
# Time = 521, dut_data_in = 0111, dut_control = 001, dut_data_out = 1011
# Time = 525, dut_data_in = 0111, dut_control = 001, dut_data_out = 0111
# Time = 533, dut_data_in = 0110, dut_control = 100, dut_data_out = 0111
# Time = 545, dut_data_in = 0010, dut_control = 000, dut_data_out = 0111
# Time = 557, dut_data_in = 0111, dut_control = 101, dut_data_out = 0111
# Time = 561, dut_data_in = 0111, dut_control = 101, dut_data_out = 1000
# Time = 567, dut_data_in = 0111, dut_control = 101, dut_data_out = 1001
# Time = 569, dut_data_in = 0010, dut_control = 110, dut_data_out = 1001
# Time = 581, dut_data_in = 1101, dut_control = 001, dut_data_out = 1001
# Time = 585, dut_data_in = 1101, dut_control = 001, dut_data_out = 1101
# Time = 593, dut_data_in = 1111, dut_control = 011, dut_data_out = 1101
# Time = 597, dut_data_in = 1111, dut_control = 011, dut_data_out = 1110
# USPEH: dut pobudjen sa stotinu pseudoslucajnih ulaznih vrednosti
